{
  "name": "robofirm-wkhtmltopdf",
  "version": "0.1.1",
  "author": "Robofirm",
  "license": "MIT",
  "summary": "Installs wkhtmltopdf at a specific version.",
  "source": "https://bitbucket.org/robofirm/puppet-module-wkhtmltopdf/src",
  "dependencies": [],
  "project_page": "https://bitbucket.org/robofirm/puppet-module-wkhtmltopdf",
  "issues_url": "https://bitbucket.org/robofirm/puppet-module-wkhtmltopdf/issues",
  "operatingsystem_support": [
    {
      "operatingsystem": "RedHat",
      "operatingsystemrelease": [ "7.3" ]
    },
    {
      "operatingsystem": "CentOS",
      "operatingsystemrelease": [ "7.2" ]
    }
  ],
  "tags": ["wkhtmltopdf", "wkhtmltox", "wkhtmltoimage"]
}
